rawdata/dt2.bmp 1 101 82 83 255
rawdata/dt3.bmp 1 63 38 46 186
rawdata/dt4.bmp 2 81 3 36 124 119 32 42 132
rawdata/dt5.bmp 1 81 23 97 140
rawdata/dt6.bmp 1 64 1 82 136
rawdata/dt7.bmp 1 756 179 360 505
rawdata/dt8.bmp 1 639 140 129 214
rawdata/dt9.bmp 1 329 25 236 550
